F:\CodeReady\fuse-excel-translation\src\main\java\in\co\dhdigital\processors\ReadExcelProcessor.java
F:\CodeReady\fuse-excel-translation\src\main\java\in\co\dhdigital\models\Destination.java
F:\CodeReady\fuse-excel-translation\src\main\java\in\co\dhdigital\Application.java
F:\CodeReady\fuse-excel-translation\src\main\java\in\co\dhdigital\processors\WriteCassandraProcessor.java
F:\CodeReady\fuse-excel-translation\src\main\java\in\co\dhdigital\processors\MapSourceToDestinationProcessor.java
F:\CodeReady\fuse-excel-translation\src\main\java\in\co\dhdigital\processors\TransformationProcessor.java
F:\CodeReady\fuse-excel-translation\src\main\java\in\co\dhdigital\repositories\DestinationRepository.java
F:\CodeReady\fuse-excel-translation\src\main\java\in\co\dhdigital\processors\ErrorProcessor.java
F:\CodeReady\fuse-excel-translation\src\main\java\in\co\dhdigital\CassandraConfig.java
F:\CodeReady\fuse-excel-translation\src\main\java\in\co\dhdigital\processors\WriteExcelProcessor.java
F:\CodeReady\fuse-excel-translation\src\main\java\in\co\dhdigital\models\Source.java
F:\CodeReady\fuse-excel-translation\src\main\java\in\co\dhdigital\splitters\ErrorSplit.java
